<svg width="117" height="45" viewBox="0 0 117 45" fill="none" xmlns="http://www.w3.org/2000/svg">
<path d="M58.896 4.02783C58.4614 4.02783 58.0757 4.11328 57.7388 4.28418C57.4067 4.4502 57.126 4.69189 56.8965 5.00928C56.6719 5.32666 56.501 5.70996 56.3838 6.15918C56.2666 6.6084 56.208 7.11377 56.208 7.67529C56.208 8.43213 56.3008 9.0791 56.4863 9.61621C56.6768 10.1484 56.9697 10.5562 57.3652 10.8394C57.7607 11.1177 58.271 11.2568 58.896 11.2568C59.3306 11.2568 59.7651 11.208 60.1997 11.1104C60.6392 11.0127 61.1152 10.8735 61.6279 10.6929V12.5972C61.1543 12.7925 60.688 12.9316 60.229 13.0146C59.77 13.1025 59.2549 13.1465 58.6836 13.1465C57.5801 13.1465 56.6719 12.9194 55.959 12.4653C55.251 12.0063 54.7261 11.3667 54.3843 10.5464C54.0425 9.72119 53.8716 8.75928 53.8716 7.66064C53.8716 6.8501 53.9814 6.10791 54.2012 5.43408C54.4209 4.76025 54.7432 4.17676 55.168 3.68359C55.5928 3.19043 56.1177 2.80957 56.7427 2.54102C57.3677 2.27246 58.0854 2.13818 58.896 2.13818C59.4282 2.13818 59.9604 2.20654 60.4927 2.34326C61.0298 2.4751 61.5425 2.6582 62.0308 2.89258L61.2983 4.73828C60.8979 4.54785 60.4951 4.38184 60.0898 4.24023C59.6846 4.09863 59.2866 4.02783 58.896 4.02783ZM64.5131 13V2.29199H66.7836V11.125H71.1269V13H64.5131ZM83.3138 7.63135C83.3138 8.45654 83.2112 9.2085 83.0062 9.88721C82.8011 10.561 82.4886 11.1421 82.0687 11.6304C81.6536 12.1187 81.1263 12.4946 80.4866 12.7583C79.847 13.0171 79.0901 13.1465 78.2161 13.1465C77.3421 13.1465 76.5853 13.0171 75.9456 12.7583C75.306 12.4946 74.7762 12.1187 74.3563 11.6304C73.9412 11.1421 73.6312 10.5586 73.4261 9.87988C73.221 9.20117 73.1185 8.44678 73.1185 7.6167C73.1185 6.5083 73.2991 5.54395 73.6604 4.72363C74.0267 3.89844 74.5882 3.25879 75.345 2.80469C76.1019 2.35059 77.0638 2.12354 78.2308 2.12354C79.3929 2.12354 80.3475 2.35059 81.0945 2.80469C81.8465 3.25879 82.4031 3.89844 82.7645 4.72363C83.1307 5.54883 83.3138 6.51807 83.3138 7.63135ZM75.4988 7.63135C75.4988 8.37842 75.5916 9.02295 75.7771 9.56494C75.9676 10.1021 76.263 10.5171 76.6634 10.8101C77.0638 11.0981 77.5813 11.2422 78.2161 11.2422C78.8606 11.2422 79.3831 11.0981 79.7835 10.8101C80.1839 10.5171 80.4744 10.1021 80.6551 9.56494C80.8406 9.02295 80.9334 8.37842 80.9334 7.63135C80.9334 6.5083 80.7234 5.62451 80.3035 4.97998C79.8836 4.33545 79.1927 4.01318 78.2308 4.01318C77.5911 4.01318 77.0687 4.15967 76.6634 4.45264C76.263 4.74072 75.9676 5.15576 75.7771 5.69775C75.5916 6.23486 75.4988 6.87939 75.4988 7.63135ZM94.8488 2.29199V9.2207C94.8488 9.95801 94.6853 10.6245 94.3581 11.2202C94.0358 11.811 93.5451 12.2798 92.8859 12.6265C92.2316 12.9731 91.4064 13.1465 90.4104 13.1465C88.9943 13.1465 87.9152 12.7852 87.173 12.0625C86.4309 11.3398 86.0598 10.3828 86.0598 9.19141V2.29199H88.3229V8.84717C88.3229 9.73096 88.5036 10.3511 88.8649 10.7075C89.2263 11.064 89.7609 11.2422 90.4689 11.2422C90.967 11.2422 91.3698 11.1567 91.6774 10.9858C91.9899 10.8149 92.2194 10.5513 92.3659 10.1948C92.5124 9.83838 92.5856 9.38428 92.5856 8.83252V2.29199H94.8488ZM106.955 7.54346C106.955 8.74951 106.723 9.75781 106.259 10.5684C105.8 11.374 105.134 11.9819 104.26 12.3921C103.386 12.7974 102.334 13 101.103 13H98.0709V2.29199H101.433C102.556 2.29199 103.53 2.49219 104.355 2.89258C105.18 3.28809 105.82 3.87646 106.274 4.65771C106.728 5.43408 106.955 6.396 106.955 7.54346ZM104.597 7.60205C104.597 6.81104 104.48 6.16162 104.245 5.65381C104.016 5.14111 103.674 4.7627 103.22 4.51855C102.771 4.27441 102.214 4.15234 101.55 4.15234H100.341V11.125H101.316C102.424 11.125 103.247 10.8296 103.784 10.2388C104.326 9.64795 104.597 8.76904 104.597 7.60205ZM60.6685 24.0264C60.6685 24.6611 60.5146 25.2129 60.207 25.6816C59.8994 26.1504 59.4502 26.5117 58.8594 26.7656C58.2734 27.0195 57.5605 27.1465 56.7207 27.1465C56.3496 27.1465 55.9858 27.1221 55.6294 27.0732C55.2778 27.0244 54.9385 26.9536 54.6113 26.8608C54.2891 26.7632 53.9814 26.6436 53.6885 26.502V24.3926C54.1963 24.6172 54.7236 24.8198 55.2705 25.0005C55.8174 25.1812 56.3594 25.2715 56.8965 25.2715C57.2676 25.2715 57.5654 25.2227 57.79 25.125C58.0195 25.0273 58.1855 24.8931 58.2881 24.7222C58.3906 24.5513 58.4419 24.356 58.4419 24.1362C58.4419 23.8677 58.3516 23.6382 58.1709 23.4478C57.9902 23.2573 57.7412 23.0791 57.4238 22.9131C57.1113 22.7471 56.7573 22.5688 56.3618 22.3784C56.1128 22.2612 55.8418 22.1196 55.5488 21.9536C55.2559 21.7827 54.9775 21.5752 54.7139 21.3311C54.4502 21.0869 54.2329 20.7915 54.062 20.4448C53.896 20.0933 53.813 19.6733 53.813 19.1851C53.813 18.5454 53.9595 17.9985 54.2524 17.5444C54.5454 17.0903 54.9629 16.7437 55.5049 16.5044C56.0518 16.2603 56.6963 16.1382 57.4385 16.1382C57.9951 16.1382 58.5249 16.2041 59.0278 16.3359C59.5356 16.4629 60.0654 16.6484 60.6172 16.8926L59.8848 18.6577C59.3916 18.4575 58.9497 18.3037 58.5591 18.1963C58.1685 18.084 57.7705 18.0278 57.3652 18.0278C57.082 18.0278 56.8403 18.0742 56.6401 18.167C56.4399 18.2549 56.2886 18.3818 56.186 18.5479C56.0835 18.709 56.0322 18.897 56.0322 19.1118C56.0322 19.3657 56.1055 19.5806 56.252 19.7563C56.4033 19.9272 56.6279 20.0933 56.9258 20.2544C57.2285 20.4155 57.6045 20.6035 58.0537 20.8184C58.6006 21.0771 59.0669 21.3481 59.4526 21.6313C59.8433 21.9097 60.1436 22.2393 60.3535 22.6201C60.5635 22.9961 60.6685 23.4648 60.6685 24.0264ZM69.3764 27H63.2094V16.292H69.3764V18.1523H65.4799V20.5034H69.1054V22.3638H65.4799V25.125H69.3764V27ZM75.3377 16.292C76.3094 16.292 77.1102 16.4092 77.74 16.6436C78.3748 16.8779 78.846 17.2319 79.1536 17.7056C79.4612 18.1792 79.615 18.7773 79.615 19.5C79.615 19.9883 79.5223 20.4155 79.3367 20.7817C79.1512 21.1479 78.907 21.458 78.6043 21.7119C78.3016 21.9658 77.9744 22.1733 77.6229 22.3345L80.7723 27H78.2527L75.6966 22.8911H74.4881V27H72.2176V16.292H75.3377ZM75.1766 18.1523H74.4881V21.0454H75.2205C75.9725 21.0454 76.5096 20.9209 76.8318 20.6719C77.159 20.418 77.3226 20.0469 77.3226 19.5586C77.3226 19.0508 77.1468 18.6895 76.7952 18.4746C76.4485 18.2598 75.909 18.1523 75.1766 18.1523ZM91.1208 16.292L87.4807 27H85.0051L81.3723 16.292H83.6647L85.6789 22.6641C85.7131 22.7715 85.7692 22.9741 85.8474 23.272C85.9255 23.5649 86.0036 23.8774 86.0817 24.2095C86.1647 24.5366 86.2209 24.8076 86.2502 25.0225C86.2795 24.8076 86.3308 24.5366 86.404 24.2095C86.4821 23.8823 86.5578 23.5723 86.6311 23.2793C86.7092 22.9814 86.7653 22.7764 86.7995 22.6641L88.8283 16.292H91.1208ZM93.0758 27V16.292H95.3463V27H93.0758ZM103.19 18.0278C102.755 18.0278 102.37 18.1133 102.033 18.2842C101.701 18.4502 101.42 18.6919 101.19 19.0093C100.966 19.3267 100.795 19.71 100.678 20.1592C100.561 20.6084 100.502 21.1138 100.502 21.6753C100.502 22.4321 100.595 23.0791 100.78 23.6162C100.971 24.1484 101.264 24.5562 101.659 24.8394C102.055 25.1177 102.565 25.2568 103.19 25.2568C103.625 25.2568 104.059 25.208 104.494 25.1104C104.933 25.0127 105.409 24.8735 105.922 24.6929V26.5972C105.448 26.7925 104.982 26.9316 104.523 27.0146C104.064 27.1025 103.549 27.1465 102.978 27.1465C101.874 27.1465 100.966 26.9194 100.253 26.4653C99.5449 26.0063 99.02 25.3667 98.6782 24.5464C98.3364 23.7212 98.1655 22.7593 98.1655 21.6606C98.1655 20.8501 98.2754 20.1079 98.4951 19.4341C98.7148 18.7603 99.0371 18.1768 99.4619 17.6836C99.8867 17.1904 100.412 16.8096 101.037 16.541C101.662 16.2725 102.379 16.1382 103.19 16.1382C103.722 16.1382 104.254 16.2065 104.787 16.3433C105.324 16.4751 105.836 16.6582 106.325 16.8926L105.592 18.7383C105.192 18.5479 104.789 18.3818 104.384 18.2402C103.979 18.0986 103.581 18.0278 103.19 18.0278ZM114.974 27H108.807V16.292H114.974V18.1523H111.078V20.5034H114.703V22.3638H111.078V25.125H114.974V27ZM56.6943 31.7197C57.8919 31.7197 58.7658 31.9546 59.3159 32.4243C59.8703 32.8898 60.1475 33.5584 60.1475 34.4302C60.1475 34.8237 60.0819 35.1982 59.9507 35.5537C59.8237 35.9049 59.6164 36.216 59.3286 36.4868C59.0409 36.7534 58.6621 36.965 58.1924 37.1216C57.7269 37.2739 57.1556 37.3501 56.4785 37.3501H55.3486V41H54.2695V31.7197H56.6943ZM56.5928 32.6401H55.3486V36.4233H56.3579C56.9504 36.4233 57.4434 36.3599 57.8369 36.2329C58.2347 36.106 58.533 35.9007 58.7319 35.6172C58.9308 35.3294 59.0303 34.9486 59.0303 34.4746C59.0303 33.8568 58.8335 33.3976 58.4399 33.0972C58.0464 32.7925 57.4307 32.6401 56.5928 32.6401ZM70.6587 36.3472C70.6587 37.0623 70.5677 37.714 70.3857 38.3022C70.2038 38.8862 69.9329 39.3898 69.5732 39.813C69.2178 40.2319 68.7755 40.5557 68.2466 40.7842C67.7176 41.0127 67.104 41.127 66.4057 41.127C65.6863 41.127 65.0579 41.0127 64.5205 40.7842C63.9873 40.5557 63.5429 40.2298 63.1875 39.8066C62.8362 39.3835 62.5718 38.8778 62.394 38.2896C62.2205 37.7013 62.1338 37.0496 62.1338 36.3345C62.1338 35.3866 62.2903 34.555 62.6035 33.8398C62.9166 33.1247 63.3906 32.5682 64.0254 32.1704C64.6644 31.7726 65.4642 31.5737 66.4248 31.5737C67.3431 31.5737 68.1154 31.7705 68.7417 32.1641C69.3722 32.5576 69.8483 33.112 70.1699 33.8271C70.4957 34.5381 70.6587 35.3781 70.6587 36.3472ZM63.27 36.3472C63.27 37.1343 63.3821 37.8156 63.6064 38.3911C63.8307 38.9666 64.1735 39.411 64.6347 39.7241C65.1002 40.0373 65.6906 40.1938 66.4057 40.1938C67.1251 40.1938 67.7134 40.0373 68.1704 39.7241C68.6317 39.411 68.9723 38.9666 69.1924 38.3911C69.4124 37.8156 69.5224 37.1343 69.5224 36.3472C69.5224 35.1496 69.2707 34.2144 68.7671 33.5415C68.2677 32.8644 67.487 32.5259 66.4248 32.5259C65.7054 32.5259 65.1129 32.6803 64.6474 32.9893C64.1819 33.2982 63.8349 33.7383 63.6064 34.3096C63.3821 34.8766 63.27 35.5558 63.27 36.3472ZM75.7553 31.7197C76.5171 31.7197 77.1455 31.8149 77.6406 32.0054C78.1399 32.1916 78.5123 32.4772 78.7578 32.8623C79.0032 33.2474 79.1259 33.7383 79.1259 34.335C79.1259 34.8258 79.0371 35.2363 78.8593 35.5664C78.6816 35.8923 78.4489 36.1567 78.1611 36.3599C77.8733 36.563 77.5665 36.7196 77.2407 36.8296L79.7861 41H78.5293L76.2568 37.1279H74.3271V41H73.248V31.7197H75.7553ZM75.6919 32.6528H74.3271V36.2139H75.7998C76.5573 36.2139 77.1137 36.0594 77.4692 35.7505C77.8289 35.4416 78.0088 34.9867 78.0088 34.3857C78.0088 33.7552 77.8183 33.3088 77.4375 33.0464C77.0608 32.784 76.479 32.6528 75.6919 32.6528ZM84.6415 41H83.5561V32.6719H80.6362V31.7197H87.5488V32.6719H84.6415V41ZM95.2924 41L94.1498 38.0547H90.4301L89.2939 41H88.2021L91.8329 31.6816H92.8041L96.4096 41H95.2924ZM93.8261 37.0962L92.7406 34.1699C92.7153 34.0938 92.6729 33.9689 92.6137 33.7954C92.5587 33.6219 92.5016 33.4421 92.4423 33.2559C92.3831 33.0697 92.3344 32.9194 92.2963 32.8052C92.254 32.9787 92.2074 33.1522 92.1567 33.3257C92.1101 33.495 92.0636 33.6536 92.017 33.8018C91.9705 33.9456 91.9303 34.0684 91.8964 34.1699L90.7919 37.0962H93.8261ZM98.2182 41V31.7197H99.2973V40.0352H103.417V41H98.2182Z" fill="#FFFFFF"/>
<path fill-rule="evenodd" clip-rule="evenodd" d="M21.4838 12.7886C21.1733 12.4656 20.8886 12.1175 20.6332 11.7476L12.0728 19.1384C12.3014 19.3909 12.5135 19.6586 12.7072 19.9399L21.4838 12.7886ZM14.0119 25.1069C13.9553 25.6369 13.8447 26.1508 13.6857 26.6428L24.9407 30.6486C25.0454 30.3544 25.1618 30.0656 25.2893 29.7829L14.0119 25.1069ZM31.5307 23.8155L28.4668 15.2802C28.8507 15.2344 29.2265 15.1624 29.5924 15.0661L32.29 23.5442C32.0329 23.626 31.7797 23.7165 31.5307 23.8155Z" fill="#BDBDBD"/>
<circle cx="27.4722" cy="7.03339" r="7.02778" fill="#63C3D1"/>
<circle cx="35.7778" cy="34.5057" r="10.2222" fill="#63C3D1"/>
<circle cx="6.38889" cy="24.2834" r="6.38889" fill="#63C3D1"/>
</svg>